^C:\USERS\KACPER\SOURCE\REPOS\WYPOZYCZALNIA\WYPOZYCZALNIA\HELPERS.CPP
/c /ZI /JMC /nologo /W3 /WX- /diagnostics:column /sdl /Od /Oy- /D WIN32 /D _DEBUG /D _CONSOLE /D _UNICODE /D UNICODE /Gm- /EHsc /RTC1 /MDd /GS /fp:precise /permissive- /Zc:wchar_t /Zc:forScope /Zc:inline /Fo"DEBUG\\" /Fd"DEBUG\VC142.PDB" /Gd /TP /analyze- /FC C:\USERS\KACPER\SOURCE\REPOS\WYPOZYCZALNIA\WYPOZYCZALNIA\HELPERS.CPP
^C:\USERS\KACPER\SOURCE\REPOS\WYPOZYCZALNIA\WYPOZYCZALNIA\USER.CPP
/c /ZI /JMC /nologo /W3 /WX- /diagnostics:column /sdl /Od /Oy- /D WIN32 /D _DEBUG /D _CONSOLE /D _UNICODE /D UNICODE /Gm- /EHsc /RTC1 /MDd /GS /fp:precise /permissive- /Zc:wchar_t /Zc:forScope /Zc:inline /Fo"DEBUG\\" /Fd"DEBUG\VC142.PDB" /Gd /TP /analyze- /FC C:\USERS\KACPER\SOURCE\REPOS\WYPOZYCZALNIA\WYPOZYCZALNIA\USER.CPP
^C:\USERS\KACPER\SOURCE\REPOS\WYPOZYCZALNIA\WYPOZYCZALNIA\USERMANAGER.CPP
/c /ZI /JMC /nologo /W3 /WX- /diagnostics:column /sdl /Od /Oy- /D WIN32 /D _DEBUG /D _CONSOLE /D _UNICODE /D UNICODE /Gm- /EHsc /RTC1 /MDd /GS /fp:precise /permissive- /Zc:wchar_t /Zc:forScope /Zc:inline /Fo"DEBUG\\" /Fd"DEBUG\VC142.PDB" /Gd /TP /analyze- /FC C:\USERS\KACPER\SOURCE\REPOS\WYPOZYCZALNIA\WYPOZYCZALNIA\USERMANAGER.CPP
^C:\USERS\KACPER\SOURCE\REPOS\WYPOZYCZALNIA\WYPOZYCZALNIA\SAMOCHOD.CPP
/c /ZI /JMC /nologo /W3 /WX- /diagnostics:column /sdl /Od /Oy- /D WIN32 /D _DEBUG /D _CONSOLE /D _UNICODE /D UNICODE /Gm- /EHsc /RTC1 /MDd /GS /fp:precise /permissive- /Zc:wchar_t /Zc:forScope /Zc:inline /Fo"DEBUG\\" /Fd"DEBUG\VC142.PDB" /Gd /TP /analyze- /FC C:\USERS\KACPER\SOURCE\REPOS\WYPOZYCZALNIA\WYPOZYCZALNIA\SAMOCHOD.CPP
^C:\USERS\KACPER\SOURCE\REPOS\WYPOZYCZALNIA\WYPOZYCZALNIA\WYPOZYCZALNIA.CPP
/c /ZI /JMC /nologo /W3 /WX- /diagnostics:column /sdl /Od /Oy- /D WIN32 /D _DEBUG /D _CONSOLE /D _UNICODE /D UNICODE /Gm- /EHsc /RTC1 /MDd /GS /fp:precise /permissive- /Zc:wchar_t /Zc:forScope /Zc:inline /Fo"DEBUG\\" /Fd"DEBUG\VC142.PDB" /Gd /TP /analyze- /FC C:\USERS\KACPER\SOURCE\REPOS\WYPOZYCZALNIA\WYPOZYCZALNIA\WYPOZYCZALNIA.CPP
^C:\USERS\KACPER\SOURCE\REPOS\WYPOZYCZALNIA\WYPOZYCZALNIA\MENUMANAGER.CPP
/c /ZI /JMC /nologo /W3 /WX- /diagnostics:column /sdl /Od /Oy- /D WIN32 /D _DEBUG /D _CONSOLE /D _UNICODE /D UNICODE /Gm- /EHsc /RTC1 /MDd /GS /fp:precise /permissive- /Zc:wchar_t /Zc:forScope /Zc:inline /Fo"DEBUG\\" /Fd"DEBUG\VC142.PDB" /Gd /TP /analyze- /FC C:\USERS\KACPER\SOURCE\REPOS\WYPOZYCZALNIA\WYPOZYCZALNIA\MENUMANAGER.CPP
