^C:\USERS\KACPER\SOURCE\REPOS\WYPOZYCZALNIA\WYPOZYCZALNIA\SAMOCHOD.CPP|C:\USERS\KACPER\SOURCE\REPOS\WYPOZYCZALNIA\WYPOZYCZALNIA\WYPOZYCZALNIA.CPP
C:\USERS\KACPER\SOURCE\REPOS\WYPOZYCZALNIA\WYPOZYCZALNIA\DEBUG\VC142.PDB
C:\USERS\KACPER\SOURCE\REPOS\WYPOZYCZALNIA\WYPOZYCZALNIA\DEBUG\VC142.IDB
C:\USERS\KACPER\SOURCE\REPOS\WYPOZYCZALNIA\WYPOZYCZALNIA\DEBUG\WYPOZYCZALNIA.OBJ
C:\USERS\KACPER\SOURCE\REPOS\WYPOZYCZALNIA\WYPOZYCZALNIA\DEBUG\SAMOCHOD.OBJ
^C:\USERS\KACPER\SOURCE\REPOS\WYPOZYCZALNIA\WYPOZYCZALNIA\HELPERS.CPP|C:\USERS\KACPER\SOURCE\REPOS\WYPOZYCZALNIA\WYPOZYCZALNIA\SAMOCHOD.CPP|C:\USERS\KACPER\SOURCE\REPOS\WYPOZYCZALNIA\WYPOZYCZALNIA\USER.CPP|C:\USERS\KACPER\SOURCE\REPOS\WYPOZYCZALNIA\WYPOZYCZALNIA\WYPOZYCZALNIA.CPP
C:\USERS\KACPER\SOURCE\REPOS\WYPOZYCZALNIA\WYPOZYCZALNIA\DEBUG\VC142.PDB
C:\USERS\KACPER\SOURCE\REPOS\WYPOZYCZALNIA\WYPOZYCZALNIA\DEBUG\VC142.IDB
C:\USERS\KACPER\SOURCE\REPOS\WYPOZYCZALNIA\WYPOZYCZALNIA\DEBUG\WYPOZYCZALNIA.OBJ
C:\USERS\KACPER\SOURCE\REPOS\WYPOZYCZALNIA\WYPOZYCZALNIA\DEBUG\SAMOCHOD.OBJ
C:\USERS\KACPER\SOURCE\REPOS\WYPOZYCZALNIA\WYPOZYCZALNIA\DEBUG\HELPERS.OBJ
^C:\USERS\KACPER\SOURCE\REPOS\WYPOZYCZALNIA\WYPOZYCZALNIA\USER.CPP|C:\USERS\KACPER\SOURCE\REPOS\WYPOZYCZALNIA\WYPOZYCZALNIA\WYPOZYCZALNIA.CPP
C:\USERS\KACPER\SOURCE\REPOS\WYPOZYCZALNIA\WYPOZYCZALNIA\DEBUG\VC142.PDB
C:\USERS\KACPER\SOURCE\REPOS\WYPOZYCZALNIA\WYPOZYCZALNIA\DEBUG\VC142.IDB
C:\USERS\KACPER\SOURCE\REPOS\WYPOZYCZALNIA\WYPOZYCZALNIA\DEBUG\WYPOZYCZALNIA.OBJ
C:\USERS\KACPER\SOURCE\REPOS\WYPOZYCZALNIA\WYPOZYCZALNIA\DEBUG\USER.OBJ
^C:\USERS\KACPER\SOURCE\REPOS\WYPOZYCZALNIA\WYPOZYCZALNIA\USER.CPP|C:\USERS\KACPER\SOURCE\REPOS\WYPOZYCZALNIA\WYPOZYCZALNIA\USERMANAGER.CPP|C:\USERS\KACPER\SOURCE\REPOS\WYPOZYCZALNIA\WYPOZYCZALNIA\WYPOZYCZALNIA.CPP
C:\USERS\KACPER\SOURCE\REPOS\WYPOZYCZALNIA\WYPOZYCZALNIA\DEBUG\VC142.PDB
C:\USERS\KACPER\SOURCE\REPOS\WYPOZYCZALNIA\WYPOZYCZALNIA\DEBUG\VC142.IDB
C:\USERS\KACPER\SOURCE\REPOS\WYPOZYCZALNIA\WYPOZYCZALNIA\DEBUG\WYPOZYCZALNIA.OBJ
C:\USERS\KACPER\SOURCE\REPOS\WYPOZYCZALNIA\WYPOZYCZALNIA\DEBUG\USER.OBJ
^C:\USERS\KACPER\SOURCE\REPOS\WYPOZYCZALNIA\WYPOZYCZALNIA\USERMANAGER.CPP|C:\USERS\KACPER\SOURCE\REPOS\WYPOZYCZALNIA\WYPOZYCZALNIA\WYPOZYCZALNIA.CPP
C:\USERS\KACPER\SOURCE\REPOS\WYPOZYCZALNIA\WYPOZYCZALNIA\DEBUG\VC142.PDB
C:\USERS\KACPER\SOURCE\REPOS\WYPOZYCZALNIA\WYPOZYCZALNIA\DEBUG\VC142.IDB
C:\USERS\KACPER\SOURCE\REPOS\WYPOZYCZALNIA\WYPOZYCZALNIA\DEBUG\WYPOZYCZALNIA.OBJ
C:\USERS\KACPER\SOURCE\REPOS\WYPOZYCZALNIA\WYPOZYCZALNIA\DEBUG\USERMANAGER.OBJ
^C:\USERS\KACPER\SOURCE\REPOS\WYPOZYCZALNIA\WYPOZYCZALNIA\MENUMANAGER.CPP|C:\USERS\KACPER\SOURCE\REPOS\WYPOZYCZALNIA\WYPOZYCZALNIA\WYPOZYCZALNIA.CPP
C:\USERS\KACPER\SOURCE\REPOS\WYPOZYCZALNIA\WYPOZYCZALNIA\DEBUG\VC142.PDB
C:\USERS\KACPER\SOURCE\REPOS\WYPOZYCZALNIA\WYPOZYCZALNIA\DEBUG\VC142.IDB
C:\USERS\KACPER\SOURCE\REPOS\WYPOZYCZALNIA\WYPOZYCZALNIA\DEBUG\WYPOZYCZALNIA.OBJ
C:\USERS\KACPER\SOURCE\REPOS\WYPOZYCZALNIA\WYPOZYCZALNIA\DEBUG\MENUMANAGER.OBJ
^C:\USERS\KACPER\SOURCE\REPOS\WYPOZYCZALNIA\WYPOZYCZALNIA\HELPERS.CPP|C:\USERS\KACPER\SOURCE\REPOS\WYPOZYCZALNIA\WYPOZYCZALNIA\MENUMANAGER.CPP|C:\USERS\KACPER\SOURCE\REPOS\WYPOZYCZALNIA\WYPOZYCZALNIA\SAMOCHOD.CPP|C:\USERS\KACPER\SOURCE\REPOS\WYPOZYCZALNIA\WYPOZYCZALNIA\USER.CPP|C:\USERS\KACPER\SOURCE\REPOS\WYPOZYCZALNIA\WYPOZYCZALNIA\USERMANAGER.CPP|C:\USERS\KACPER\SOURCE\REPOS\WYPOZYCZALNIA\WYPOZYCZALNIA\WYPOZYCZALNIA.CPP
C:\USERS\KACPER\SOURCE\REPOS\WYPOZYCZALNIA\WYPOZYCZALNIA\DEBUG\VC142.PDB
C:\USERS\KACPER\SOURCE\REPOS\WYPOZYCZALNIA\WYPOZYCZALNIA\DEBUG\VC142.IDB
C:\USERS\KACPER\SOURCE\REPOS\WYPOZYCZALNIA\WYPOZYCZALNIA\DEBUG\WYPOZYCZALNIA.OBJ
C:\USERS\KACPER\SOURCE\REPOS\WYPOZYCZALNIA\WYPOZYCZALNIA\DEBUG\USERMANAGER.OBJ
C:\USERS\KACPER\SOURCE\REPOS\WYPOZYCZALNIA\WYPOZYCZALNIA\DEBUG\USER.OBJ
C:\USERS\KACPER\SOURCE\REPOS\WYPOZYCZALNIA\WYPOZYCZALNIA\DEBUG\SAMOCHOD.OBJ
C:\USERS\KACPER\SOURCE\REPOS\WYPOZYCZALNIA\WYPOZYCZALNIA\DEBUG\HELPERS.OBJ
^C:\USERS\KACPER\SOURCE\REPOS\WYPOZYCZALNIA\WYPOZYCZALNIA\HELPERS.CPP
C:\USERS\KACPER\SOURCE\REPOS\WYPOZYCZALNIA\WYPOZYCZALNIA\DEBUG\HELPERS.OBJ
^C:\USERS\KACPER\SOURCE\REPOS\WYPOZYCZALNIA\WYPOZYCZALNIA\USER.CPP
C:\USERS\KACPER\SOURCE\REPOS\WYPOZYCZALNIA\WYPOZYCZALNIA\DEBUG\USER.OBJ
^C:\USERS\KACPER\SOURCE\REPOS\WYPOZYCZALNIA\WYPOZYCZALNIA\USERMANAGER.CPP
C:\USERS\KACPER\SOURCE\REPOS\WYPOZYCZALNIA\WYPOZYCZALNIA\DEBUG\USERMANAGER.OBJ
^C:\USERS\KACPER\SOURCE\REPOS\WYPOZYCZALNIA\WYPOZYCZALNIA\MENUMANAGER.CPP|C:\USERS\KACPER\SOURCE\REPOS\WYPOZYCZALNIA\WYPOZYCZALNIA\SAMOCHOD.CPP|C:\USERS\KACPER\SOURCE\REPOS\WYPOZYCZALNIA\WYPOZYCZALNIA\WYPOZYCZALNIA.CPP
C:\USERS\KACPER\SOURCE\REPOS\WYPOZYCZALNIA\WYPOZYCZALNIA\DEBUG\VC142.PDB
C:\USERS\KACPER\SOURCE\REPOS\WYPOZYCZALNIA\WYPOZYCZALNIA\DEBUG\VC142.IDB
C:\USERS\KACPER\SOURCE\REPOS\WYPOZYCZALNIA\WYPOZYCZALNIA\DEBUG\WYPOZYCZALNIA.OBJ
C:\USERS\KACPER\SOURCE\REPOS\WYPOZYCZALNIA\WYPOZYCZALNIA\DEBUG\SAMOCHOD.OBJ
C:\USERS\KACPER\SOURCE\REPOS\WYPOZYCZALNIA\WYPOZYCZALNIA\DEBUG\MENUMANAGER.OBJ
^C:\USERS\KACPER\SOURCE\REPOS\WYPOZYCZALNIA\WYPOZYCZALNIA\SAMOCHOD.CPP
C:\USERS\KACPER\SOURCE\REPOS\WYPOZYCZALNIA\WYPOZYCZALNIA\DEBUG\VC142.PDB
^C:\USERS\KACPER\SOURCE\REPOS\WYPOZYCZALNIA\WYPOZYCZALNIA\WYPOZYCZALNIA.CPP
C:\USERS\KACPER\SOURCE\REPOS\WYPOZYCZALNIA\WYPOZYCZALNIA\DEBUG\VC142.PDB
^C:\USERS\KACPER\SOURCE\REPOS\WYPOZYCZALNIA\WYPOZYCZALNIA\MENUMANAGER.CPP
C:\USERS\KACPER\SOURCE\REPOS\WYPOZYCZALNIA\WYPOZYCZALNIA\DEBUG\VC142.PDB
C:\USERS\KACPER\SOURCE\REPOS\WYPOZYCZALNIA\WYPOZYCZALNIA\DEBUG\VC142.IDB
C:\USERS\KACPER\SOURCE\REPOS\WYPOZYCZALNIA\WYPOZYCZALNIA\DEBUG\MENUMANAGER.OBJ
